{
    "builders": [{
    "type": "amazon-ebs",
    "region": "eu-west-1",
    "source_ami": "ami-063d4ab14480ac177",
    "instance_type": "t2.micro",
    "ami_name": "jass_pc_base_ami",
    "force_deregister": "true",
    "force_delete_snapshot": "true",
    "ssh_username": "ec2-user",
    "tags":{
    "Name":"jass_pc_base_ami"
    }
    }],

    "provisioners": [{
    "type": "file",
    "source": "./petclinic_init.init",
    "destination": "/home/ec2-user/petclinic.init"
    },
    {
    "type": "file",
    "source": "./create_user.sql",
    "destination": "/home/ec2-user/create_user.sql"
    },
    {
    "type": "shell",
    "script": "./prov_pet_1.sh"
    }]
}
